{
  "Vertices": [
    {
      "Name": "node1",
      "Id": 0
    },
    {
      "Name": "node2",
      "Id": 1
    },
    {
      "Name": "vertex1",
      "Id": 2
    }
  ],
  "Edges": [
    {
      "Name": "e1",
      "V1": 0,
      "V2": 1,
      "Id": 0
    },
    {
      "Name": "e2",
      "V1": 1,
      "V2": 0,
      "Id": 1
    }
  ]
}
